LogicaRec/Atividade2/simulation/qsim/Atividade2.msim.vcd
$comment
	File created using the following command:
		vcd file Atividade2.msim.vcd -direction
$end
$date
	Fri Oct 25 08:54:07 2024
$end
$version
	ModelSim Version 10.5b
$end
$timescale
	1ps
$end

$scope module atividade2_vhd_vec_tst $end
$var wire 1 ! a $end
$var wire 1 " b $end
$var wire 1 # c $end
$var wire 1 $ d $end
$var wire 1 % s $end

$scope module i1 $end
$var wire 1 & gnd $end
$var wire 1 ' vcc $end
$var wire 1 ( unknown $end
$var wire 1 ) devoe $end
$var wire 1 * devclrn $end
$var wire 1 + devpor $end
$var wire 1 , ww_devoe $end
$var wire 1 - ww_devclrn $end
$var wire 1 . ww_devpor $end
$var wire 1 / ww_a $end
$var wire 1 0 ww_b $end
$var wire 1 1 ww_c $end
$var wire 1 2 ww_d $end
$var wire 1 3 ww_s $end
$var wire 1 4 \~QUARTUS_CREATED_ADC1~_CHSEL_bus\ [4] $end
$var wire 1 5 \~QUARTUS_CREATED_ADC1~_CHSEL_bus\ [3] $end
$var wire 1 6 \~QUARTUS_CREATED_ADC1~_CHSEL_bus\ [2] $end
$var wire 1 7 \~QUARTUS_CREATED_ADC1~_CHSEL_bus\ [1] $end
$var wire 1 8 \~QUARTUS_CREATED_ADC1~_CHSEL_bus\ [0] $end
$var wire 1 9 \~QUARTUS_CREATED_ADC2~_CHSEL_bus\ [4] $end
$var wire 1 : \~QUARTUS_CREATED_ADC2~_CHSEL_bus\ [3] $end
$var wire 1 ; \~QUARTUS_CREATED_ADC2~_CHSEL_bus\ [2] $end
$var wire 1 < \~QUARTUS_CREATED_ADC2~_CHSEL_bus\ [1] $end
$var wire 1 = \~QUARTUS_CREATED_ADC2~_CHSEL_bus\ [0] $end
$var wire 1 > \~QUARTUS_CREATED_GND~I_combout\ $end
$var wire 1 ? \~QUARTUS_CREATED_UNVM~~busy\ $end
$var wire 1 @ \~QUARTUS_CREATED_ADC1~~eoc\ $end
$var wire 1 A \~QUARTUS_CREATED_ADC2~~eoc\ $end
$var wire 1 B \s~output_o\ $end
$var wire 1 C \a~input_o\ $end
$var wire 1 D \d~input_o\ $end
$var wire 1 E \b~input_o\ $end
$var wire 1 F \c~input_o\ $end
$var wire 1 G \s~0_combout\ $end
$var wire 1 H \ALT_INV_s~0_combout\ $end
$upscope $end
$upscope $end
$enddefinitions $end
#0
$dumpvars
1!
0"
1#
0$
1%
0&
1'
x(
1)
1*
1+
1,
1-
1.
1/
00
11
02
13
0>
z?
z@
zA
1B
1C
0D
0E
1F
0G
1H
04
05
06
07
08
09
0:
0;
0<
0=
$end
#5000
0!
1"
0#
0/
10
01
0F
1E
0C
#10000
1!
0"
1/
00
0E
1C
#15000
0!
1$
0/
12
1D
0C
#20000
1!
1"
1/
10
1E
1C
1G
0H
0B
03
0%
#25000
0!
0"
0$
0/
00
02
0D
0E
0C
0G
1H
1B
13
1%
#30000
1!
1"
1$
1#
1/
10
12
11
1F
1D
1E
1C
1G
0H
0B
03
0%
#40000
0!
0"
0#
0/
00
01
0F
0E
0C
0G
1H
1B
13
1%
#45000
1"
1#
10
11
1F
1E
1G
0H
0B
03
0%
#50000
0#
1!
01
1/
1C
0F
#55000
1#
0$
11
02
0D
1F
#60000
0#
01
0F
0G
1H
1B
13
1%
#70000
1$
0!
12
0/
0C
1D
#75000
0"
00
0E
#80000
1"
0$
10
02
0D
1E
#85000
0"
1!
00
1/
1C
0E
#90000
1"
1$
10
12
1D
1E
1G
0H
0B
03
0%
#95000
0"
0!
00
0/
0C
0E
0G
1H
1B
13
1%
#100000
1"
1!
1#
10
1/
11
1F
1C
1E
1G
0H
0B
03
0%
#105000
0"
0$
00
02
0D
0E
0G
1H
1B
13
1%
#110000
1$
0!
0#
12
0/
01
0F
0C
1D
#115000
1!
1#
1"
1/
11
10
1E
1F
1C
1G
0H
0B
03
0%
#120000
0!
0#
0"
0$
0/
01
00
02
0D
0E
0F
0C
0G
1H
1B
13
1%
#125000
1"
10
1E
#130000
0"
1#
00
11
1F
0E
#140000
1"
1!
1$
10
1/
12
1D
1C
1E
1G
0H
0B
03
0%
#145000
0!
0$
0#
0/
02
01
0F
0D
0C
0G
1H
1B
13
1%
#150000
1!
1#
1/
11
1F
1C
1G
0H
0B
03
0%
#155000
0!
0#
1$
0/
01
12
1D
0F
0C
0G
1H
1B
13
1%
#160000
1!
1#
0$
1/
11
02
0D
1F
1C
1G
0H
0B
03
0%
#165000
0!
0"
0/
00
0E
0C
0G
1H
1B
13
1%
#170000
0#
1$
01
12
1D
0F
#175000
0$
02
0D
#180000
1#
1"
11
10
1E
1F
1G
0H
0B
03
0%
#185000
0"
1$
1!
00
12
1/
1C
1D
0E
#190000
0$
02
0D
0G
1H
1B
13
1%
#195000
1$
1"
0!
12
10
0/
0C
1E
1D
1G
0H
0B
03
0%
#200000
0$
0"
0#
02
00
01
0F
0E
0D
0G
1H
1B
13
1%
#205000
1#
11
1F
#210000
1$
1!
12
1/
1C
1D
1G
0H
0B
03
0%
#215000
0$
0!
1"
02
0/
10
1E
0C
0D
#230000
1$
0#
12
01
0F
1D
0G
1H
1B
13
1%
#235000
1#
11
1F
1G
0H
0B
03
0%
#240000
1!
1/
1C
#245000
0!
0#
0$
0"
0/
01
02
00
0E
0D
0F
0C
0G
1H
1B
13
1%
#250000
1!
1"
1/
10
1E
1C
#255000
0"
1#
1$
00
11
12
1D
1F
0E
1G
0H
0B
03
0%
#265000
1"
0#
0$
0!
10
01
02
0/
0C
0D
0F
1E
0G
1H
1B
13
1%
#270000
1#
1$
11
12
1D
1F
1G
0H
0B
03
0%
#275000
0"
00
0E
0G
1H
1B
13
1%
#280000
1"
0#
10
01
0F
1E
#285000
1!
1/
1C
1G
0H
0B
03
0%
#290000
0"
00
0E
0G
1H
1B
13
1%
#295000
1"
0!
1#
10
0/
11
1F
0C
1E
1G
0H
0B
03
0%
#300000
0"
0#
00
01
0F
0E
0G
1H
1B
13
1%
#305000
1!
1/
1C
#310000
1#
0$
11
02
0D
1F
#315000
0!
0/
0C
#320000
1!
0#
1$
1"
1/
01
12
10
1E
1D
0F
1C
1G
0H
0B
03
0%
#325000
0"
00
0E
0G
1H
1B
13
1%
#330000
1#
0$
11
02
0D
1F
#335000
0#
1"
01
10
1E
0F
#340000
1#
1$
0!
11
12
0/
0C
1D
1F
1G
0H
0B
03
0%
#345000
0#
0"
01
00
0E
0F
0G
1H
1B
13
1%
#350000
1#
0$
11
02
0D
1F
#355000
0#
01
0F
#360000
1#
1!
11
1/
1C
1F
#365000
0#
01
0F
#370000
0!
1"
0/
10
1E
0C
#375000
1!
1#
1$
1/
11
12
1D
1F
1C
1G
0H
0B
03
0%
#380000
0!
0#
0"
0/
01
00
0E
0F
0C
0G
1H
1B
13
1%
#385000
0$
02
0D
#390000
1#
1"
11
10
1E
1F
1G
0H
0B
03
0%
#395000
0#
1!
01
1/
1C
0F
0G
1H
1B
13
1%
#400000
0!
0"
0/
00
0E
0C
#405000
1!
1"
1#
1$
1/
10
11
12
1D
1F
1E
1C
1G
0H
0B
03
0%
#415000
0!
0$
0/
02
0D
0C
#420000
1!
0#
1/
01
0F
1C
0G
1H
1B
13
1%
#425000
0!
0/
0C
#430000
1#
11
1F
1G
0H
0B
03
0%
#435000
0"
00
0E
0G
1H
1B
13
1%
#440000
1"
1$
10
12
1D
1E
1G
0H
0B
03
0%
#445000
0"
0#
00
01
0F
0E
0G
1H
1B
13
1%
#450000
1"
1#
0$
10
11
02
0D
1F
1E
1G
0H
0B
03
0%
#455000
0#
1$
1!
01
12
1/
1C
1D
0F
#460000
1#
0!
11
0/
0C
1F
#465000
1!
0$
0"
1/
02
00
0E
0D
1C
0G
1H
1B
13
1%
#470000
0!
1$
0/
12
1D
0C
#475000
1!
0$
1/
02
0D
1C
#480000
1$
1"
0#
12
10
01
0F
1E
1D
1G
0H
0B
03
0%
#485000
1#
11
1F
#490000
0"
0!
00
0/
0C
0E
0G
1H
1B
13
1%
#495000
1!
0$
1/
02
0D
1C
#505000
0!
1$
0#
0/
12
01
0F
1D
0C
#510000
0$
1#
1"
02
11
10
1E
1F
0D
1G
0H
0B
03
0%
#515000
0#
01
0F
0G
1H
1B
13
1%
#520000
1$
0"
1!
12
00
1/
1C
0E
1D
#525000
0$
1"
02
10
1E
0D
#530000
1#
11
1F
1G
0H
0B
03
0%
#535000
0#
1$
01
12
1D
0F
#540000
1#
0$
11
02
0D
1F
#545000
1$
12
1D
#555000
0$
02
0D
#560000
0#
0"
01
00
0E
0F
0G
1H
1B
13
1%
#565000
1"
0!
10
0/
0C
1E
#570000
0"
1!
00
1/
1C
0E
#575000
1"
0!
10
0/
0C
1E
#585000
0"
1!
1$
00
1/
12
1D
1C
0E
#590000
0$
02
0D
#595000
0!
0/
0C
#600000
1#
11
1F
#605000
1!
1$
1/
12
1D
1C
1G
0H
0B
03
0%
#610000
0#
1"
01
10
1E
0F
#615000
0"
00
0E
0G
1H
1B
13
1%
#620000
1#
11
1F
1G
0H
0B
03
0%
#625000
0!
0$
0/
02
0D
0C
0G
1H
1B
13
1%
#630000
1!
1$
1"
1/
12
10
1E
1D
1C
1G
0H
0B
03
0%
#635000
0!
0"
0#
0/
00
01
0F
0E
0C
0G
1H
1B
13
1%
#640000
1"
10
1E
#645000
1#
0$
11
02
0D
1F
1G
0H
0B
03
0%
#650000
1$
12
1D
#655000
0$
0#
0"
1!
02
01
00
1/
1C
0E
0F
0D
0G
1H
1B
13
1%
#660000
1$
1"
0!
12
10
0/
0C
1E
1D
#665000
0$
0"
02
00
0E
0D
#670000
1$
1#
12
11
1F
1D
#675000
0$
02
0D
#680000
1$
0#
1"
12
01
10
1E
0F
1D
#685000
0"
1!
00
1/
1C
0E
#690000
1"
0!
10
0/
0C
1E
#695000
0"
0$
00
02
0D
0E
#700000
1$
12
1D
#705000
0$
1!
1#
02
1/
11
1F
1C
0D
#710000
1$
0#
1"
12
01
10
1E
0F
1D
1G
0H
0B
03
0%
#720000
1#
0"
11
00
0E
1F
#725000
0#
01
0F
0G
1H
1B
13
1%
#730000
1#
0$
0!
11
02
0/
0C
0D
1F
#735000
0#
1"
01
10
1E
0F
#750000
1#
0"
1$
11
00
12
1D
0E
1F
#755000
1"
0$
1!
10
02
1/
1C
0D
1E
1G
0H
0B
03
0%
#765000
0#
01
0F
0G
1H
1B
13
1%
#770000
1#
0"
1$
11
00
12
1D
0E
1F
1G
0H
0B
03
0%
#775000
1"
10
1E
#780000
0#
0$
0!
01
02
0/
0C
0D
0F
0G
1H
1B
13
1%
#785000
1$
0"
12
00
0E
1D
#790000
1"
1#
10
11
1F
1E
1G
0H
0B
03
0%
#795000
0#
01
0F
0G
1H
1B
13
1%
#800000
0"
00
0E
#805000
1"
1#
0$
1!
10
11
02
1/
1C
0D
1F
1E
1G
0H
0B
03
0%
#810000
0#
0!
01
0/
0C
0F
0G
1H
1B
13
1%
#815000
1#
1$
11
12
1D
1F
1G
0H
0B
03
0%
#820000
0#
0"
01
00
0E
0F
0G
1H
1B
13
1%
#825000
1"
10
1E
#830000
0"
1#
00
11
1F
0E
#835000
0#
1!
01
1/
1C
0F
#840000
1"
0$
10
02
0D
1E
#845000
0"
1#
00
11
1F
0E
#850000
1"
0!
10
0/
0C
1E
1G
0H
0B
03
0%
#855000
1!
1$
1/
12
1D
1C
#860000
0!
0$
0#
0/
02
01
0F
0D
0C
0G
1H
1B
13
1%
#865000
1!
1#
0"
1/
11
00
0E
1F
1C
#870000
0#
01
0F
#875000
0!
1$
0/
12
1D
0C
#880000
1#
1"
11
10
1E
1F
1G
0H
0B
03
0%
#885000
0"
1!
0$
00
1/
02
0D
1C
0E
0G
1H
1B
13
1%
#890000
1"
0!
10
0/
0C
1E
1G
0H
0B
03
0%
#895000
0"
0#
00
01
0F
0E
0G
1H
1B
13
1%
#900000
1#
1!
1$
11
1/
12
1D
1C
1F
1G
0H
0B
03
0%
#905000
0#
01
0F
0G
1H
1B
13
1%
#910000
0!
0$
0/
02
0D
0C
#920000
1!
1$
1#
1"
1/
12
11
10
1E
1F
1D
1C
1G
0H
0B
03
0%
#925000
0!
0$
0#
0/
02
01
0F
0D
0C
0G
1H
1B
13
1%
#930000
1!
1$
1/
12
1D
1C
1G
0H
0B
03
0%
#935000
0$
0"
02
00
0E
0D
0G
1H
1B
13
1%
#940000
1$
1"
1#
12
10
11
1F
1E
1D
1G
0H
0B
03
0%
#945000
0!
0/
0C
#950000
1!
0$
0#
1/
02
01
0F
0D
1C
0G
1H
1B
13
1%
#955000
0"
00
0E
#960000
1"
0!
1$
1#
10
0/
12
11
1F
1D
0C
1E
1G
0H
0B
03
0%
#965000
0"
0$
0#
00
02
01
0F
0D
0E
0G
1H
1B
13
1%
#970000
1$
12
1D
#980000
1"
10
1E
#995000
0"
1#
00
11
1F
0E
