LogicaRec/aula_Intro/simulation/qsim/aula_Intro.msim.vcd
$comment
	File created using the following command:
		vcd file aula_Intro.msim.vcd -direction
$end
$date
	Wed Oct 16 09:28:57 2024
$end
$version
	ModelSim Version 10.5b
$end
$timescale
	1ps
$end

$scope module aula_intro_vhd_vec_tst $end
$var wire 1 ! a $end
$var wire 1 " b $end
$var wire 1 # s $end
$var wire 1 $ t $end
$var wire 1 % u $end
$var wire 1 & v $end
$var wire 1 ' w $end
$var wire 1 ( x $end
$var wire 1 ) y $end
$var wire 1 * z $end

$scope module i1 $end
$var wire 1 + gnd $end
$var wire 1 , vcc $end
$var wire 1 - unknown $end
$var wire 1 . devoe $end
$var wire 1 / devclrn $end
$var wire 1 0 devpor $end
$var wire 1 1 ww_devoe $end
$var wire 1 2 ww_devclrn $end
$var wire 1 3 ww_devpor $end
$var wire 1 4 ww_a $end
$var wire 1 5 ww_b $end
$var wire 1 6 ww_s $end
$var wire 1 7 ww_t $end
$var wire 1 8 ww_u $end
$var wire 1 9 ww_v $end
$var wire 1 : ww_w $end
$var wire 1 ; ww_x $end
$var wire 1 < ww_y $end
$var wire 1 = ww_z $end
$var wire 1 > \~QUARTUS_CREATED_ADC1~_CHSEL_bus\ [4] $end
$var wire 1 ? \~QUARTUS_CREATED_ADC1~_CHSEL_bus\ [3] $end
$var wire 1 @ \~QUARTUS_CREATED_ADC1~_CHSEL_bus\ [2] $end
$var wire 1 A \~QUARTUS_CREATED_ADC1~_CHSEL_bus\ [1] $end
$var wire 1 B \~QUARTUS_CREATED_ADC1~_CHSEL_bus\ [0] $end
$var wire 1 C \~QUARTUS_CREATED_ADC2~_CHSEL_bus\ [4] $end
$var wire 1 D \~QUARTUS_CREATED_ADC2~_CHSEL_bus\ [3] $end
$var wire 1 E \~QUARTUS_CREATED_ADC2~_CHSEL_bus\ [2] $end
$var wire 1 F \~QUARTUS_CREATED_ADC2~_CHSEL_bus\ [1] $end
$var wire 1 G \~QUARTUS_CREATED_ADC2~_CHSEL_bus\ [0] $end
$var wire 1 H \~QUARTUS_CREATED_GND~I_combout\ $end
$var wire 1 I \~QUARTUS_CREATED_UNVM~~busy\ $end
$var wire 1 J \~QUARTUS_CREATED_ADC1~~eoc\ $end
$var wire 1 K \~QUARTUS_CREATED_ADC2~~eoc\ $end
$var wire 1 L \s~output_o\ $end
$var wire 1 M \t~output_o\ $end
$var wire 1 N \u~output_o\ $end
$var wire 1 O \v~output_o\ $end
$var wire 1 P \w~output_o\ $end
$var wire 1 Q \x~output_o\ $end
$var wire 1 R \y~output_o\ $end
$var wire 1 S \z~output_o\ $end
$var wire 1 T \a~input_o\ $end
$var wire 1 U \b~input_o\ $end
$var wire 1 V \u~0_combout\ $end
$var wire 1 W \v~0_combout\ $end
$var wire 1 X \y~0_combout\ $end
$var wire 1 Y \ALT_INV_b~input_o\ $end
$var wire 1 Z \ALT_INV_a~input_o\ $end
$var wire 1 [ \ALT_INV_y~0_combout\ $end
$var wire 1 \ \ALT_INV_v~0_combout\ $end
$var wire 1 ] \ALT_INV_u~0_combout\ $end
$upscope $end
$upscope $end
$enddefinitions $end
#0
$dumpvars
0!
0"
1#
1$
0%
0&
1'
1(
0)
1*
0+
1,
x-
1.
1/
10
11
12
13
04
05
16
17
08
09
1:
1;
0<
1=
0H
zI
zJ
zK
1L
1M
0N
0O
1P
1Q
0R
1S
0T
0U
0V
0W
0X
1Y
1Z
1[
1\
1]
0>
0?
0@
0A
0B
0C
0D
0E
0F
0G
$end
#20000
1"
15
1U
0Y
1W
1X
0M
0[
0\
1R
1O
07
0Q
0S
1<
19
0$
0;
0=
1)
1&
0(
0*
#40000
1!
14
1T
0Z
1V
0X
0L
1[
0]
0R
1N
06
0P
1S
0<
18
0#
0:
1=
0)
1%
0'
1*
#60000
0!
0"
04
05
0U
0T
1Z
1Y
0V
0W
1M
1L
1\
1]
0O
0N
17
16
1P
1Q
09
08
1$
1#
1:
1;
0&
0%
1'
1(
#70000
1!
1"
14
15
1U
1T
0Z
0Y
1V
1W
0M
0L
0\
0]
1O
1N
07
06
0P
0Q
19
18
0$
0#
0:
0;
1&
1%
0'
0(
#80000
0!
0"
04
05
0U
0T
1Z
1Y
0V
0W
1M
1L
1\
1]
0O
0N
17
16
1P
1Q
09
08
1$
1#
1:
1;
0&
0%
1'
1(
#90000
1!
1"
14
15
1U
1T
0Z
0Y
1V
1W
0M
0L
0\
0]
1O
1N
07
06
0P
0Q
19
18
0$
0#
0:
0;
1&
1%
0'
0(
#100000
0!
04
0T
1Z
0V
1X
1L
0[
1]
1R
0N
16
1P
0S
1<
08
1#
1:
0=
1)
0%
1'
0*
#170000
1!
0"
14
05
0U
1T
0Z
1Y
1M
0L
17
06
1$
0#
#180000
0!
04
0T
1Z
0W
0X
1L
1[
1\
0R
0O
16
1Q
1S
0<
09
1#
1;
1=
0)
0&
1(
1*
#190000
1!
14
1T
0Z
1W
1X
0L
0[
0\
1R
1O
06
0Q
0S
1<
19
0#
0;
0=
1)
1&
0(
0*
#210000
0!
04
0T
1Z
0W
0X
1L
1[
1\
0R
0O
16
1Q
1S
0<
09
1#
1;
1=
0)
0&
1(
1*
#220000
1"
15
1U
0Y
1W
1X
0M
0[
0\
1R
1O
07
0Q
0S
1<
19
0$
0;
0=
1)
1&
0(
0*
#240000
0"
05
0U
1Y
0W
0X
1M
1[
1\
0R
0O
17
1Q
1S
0<
09
1$
1;
1=
0)
0&
1(
1*
#250000
1!
14
1T
0Z
1W
1X
0L
0[
0\
1R
1O
06
0Q
0S
1<
19
0#
0;
0=
1)
1&
0(
0*
#260000
0!
04
0T
1Z
0W
0X
1L
1[
1\
0R
0O
16
1Q
1S
0<
09
1#
1;
1=
0)
0&
1(
1*
#270000
1"
15
1U
0Y
1W
1X
0M
0[
0\
1R
1O
07
0Q
0S
1<
19
0$
0;
0=
1)
1&
0(
0*
#280000
1!
14
1T
0Z
1V
0X
0L
1[
0]
0R
1N
06
0P
1S
0<
18
0#
0:
1=
0)
1%
0'
1*
#310000
0!
0"
04
05
0U
0T
1Z
1Y
0V
0W
1M
1L
1\
1]
0O
0N
17
16
1P
1Q
09
08
1$
1#
1:
1;
0&
0%
1'
1(
#320000
1"
15
1U
0Y
1W
1X
0M
0[
0\
1R
1O
07
0Q
0S
1<
19
0$
0;
0=
1)
1&
0(
0*
#330000
0"
05
0U
1Y
0W
0X
1M
1[
1\
0R
0O
17
1Q
1S
0<
09
1$
1;
1=
0)
0&
1(
1*
#340000
1"
15
1U
0Y
1W
1X
0M
0[
0\
1R
1O
07
0Q
0S
1<
19
0$
0;
0=
1)
1&
0(
0*
#350000
1!
14
1T
0Z
1V
0X
0L
1[
0]
0R
1N
06
0P
1S
0<
18
0#
0:
1=
0)
1%
0'
1*
#360000
0!
04
0T
1Z
0V
1X
1L
0[
1]
1R
0N
16
1P
0S
1<
08
1#
1:
0=
1)
0%
1'
0*
#370000
0"
05
0U
1Y
0W
0X
1M
1[
1\
0R
0O
17
1Q
1S
0<
09
1$
1;
1=
0)
0&
1(
1*
#380000
1"
1!
15
14
1T
1U
0Y
0Z
1V
1W
0L
0M
0\
0]
1O
1N
06
07
0P
0Q
19
18
0#
0$
0:
0;
1&
1%
0'
0(
#390000
0!
04
0T
1Z
0V
1X
1L
0[
1]
1R
0N
16
1P
0S
1<
08
1#
1:
0=
1)
0%
1'
0*
#410000
1!
14
1T
0Z
1V
0X
0L
1[
0]
0R
1N
06
0P
1S
0<
18
0#
0:
1=
0)
1%
0'
1*
#420000
0!
04
0T
1Z
0V
1X
1L
0[
1]
1R
0N
16
1P
0S
1<
08
1#
1:
0=
1)
0%
1'
0*
#430000
0"
05
0U
1Y
0W
0X
1M
1[
1\
0R
0O
17
1Q
1S
0<
09
1$
1;
1=
0)
0&
1(
1*
#440000
1"
15
1U
0Y
1W
1X
0M
0[
0\
1R
1O
07
0Q
0S
1<
19
0$
0;
0=
1)
1&
0(
0*
#450000
0"
1!
05
14
1T
0U
1Y
0Z
0L
1M
06
17
0#
1$
#460000
1"
15
1U
0Y
1V
0X
0M
1[
0]
0R
1N
07
0P
1S
0<
18
0$
0:
1=
0)
1%
0'
1*
#470000
0"
0!
05
04
0T
0U
1Y
1Z
0V
0W
1L
1M
1\
1]
0O
0N
16
17
1P
1Q
09
08
1#
1$
1:
1;
0&
0%
1'
1(
#480000
1"
1!
15
14
1T
1U
0Y
0Z
1V
1W
0L
0M
0\
0]
1O
1N
06
07
0P
0Q
19
18
0#
0$
0:
0;
1&
1%
0'
0(
#490000
0"
0!
05
04
0T
0U
1Y
1Z
0V
0W
1L
1M
1\
1]
0O
0N
16
17
1P
1Q
09
08
1#
1$
1:
1;
0&
0%
1'
1(
#500000
1!
14
1T
0Z
1W
1X
0L
0[
0\
1R
1O
06
0Q
0S
1<
19
0#
0;
0=
1)
1&
0(
0*
#530000
1"
15
1U
0Y
1V
0X
0M
1[
0]
0R
1N
07
0P
1S
0<
18
0$
0:
1=
0)
1%
0'
1*
#550000
0"
05
0U
1Y
0V
1X
1M
0[
1]
1R
0N
17
1P
0S
1<
08
1$
1:
0=
1)
0%
1'
0*
#560000
0!
04
0T
1Z
0W
0X
1L
1[
1\
0R
0O
16
1Q
1S
0<
09
1#
1;
1=
0)
0&
1(
1*
#570000
1!
1"
14
15
1U
1T
0Z
0Y
1V
1W
0M
0L
0\
0]
1O
1N
07
06
0P
0Q
19
18
0$
0#
0:
0;
1&
1%
0'
0(
#580000
0!
04
0T
1Z
0V
1X
1L
0[
1]
1R
0N
16
1P
0S
1<
08
1#
1:
0=
1)
0%
1'
0*
#590000
1!
0"
14
05
0U
1T
0Z
1Y
1M
0L
17
06
1$
0#
#600000
1"
15
1U
0Y
1V
0X
0M
1[
0]
0R
1N
07
0P
1S
0<
18
0$
0:
1=
0)
1%
0'
1*
#610000
0!
04
0T
1Z
0V
1X
1L
0[
1]
1R
0N
16
1P
0S
1<
08
1#
1:
0=
1)
0%
1'
0*
#620000
1!
14
1T
0Z
1V
0X
0L
1[
0]
0R
1N
06
0P
1S
0<
18
0#
0:
1=
0)
1%
0'
1*
#660000
0!
04
0T
1Z
0V
1X
1L
0[
1]
1R
0N
16
1P
0S
1<
08
1#
1:
0=
1)
0%
1'
0*
#670000
1!
14
1T
0Z
1V
0X
0L
1[
0]
0R
1N
06
0P
1S
0<
18
0#
0:
1=
0)
1%
0'
1*
#680000
0!
0"
04
05
0U
0T
1Z
1Y
0V
0W
1M
1L
1\
1]
0O
0N
17
16
1P
1Q
09
08
1$
1#
1:
1;
0&
0%
1'
1(
#690000
1!
1"
14
15
1U
1T
0Z
0Y
1V
1W
0M
0L
0\
0]
1O
1N
07
06
0P
0Q
19
18
0$
0#
0:
0;
1&
1%
0'
0(
#700000
0!
0"
04
05
0U
0T
1Z
1Y
0V
0W
1M
1L
1\
1]
0O
0N
17
16
1P
1Q
09
08
1$
1#
1:
1;
0&
0%
1'
1(
#720000
1!
1"
14
15
1U
1T
0Z
0Y
1V
1W
0M
0L
0\
0]
1O
1N
07
06
0P
0Q
19
18
0$
0#
0:
0;
1&
1%
0'
0(
#740000
0!
04
0T
1Z
0V
1X
1L
0[
1]
1R
0N
16
1P
0S
1<
08
1#
1:
0=
1)
0%
1'
0*
#750000
1!
14
1T
0Z
1V
0X
0L
1[
0]
0R
1N
06
0P
1S
0<
18
0#
0:
1=
0)
1%
0'
1*
#760000
0!
04
0T
1Z
0V
1X
1L
0[
1]
1R
0N
16
1P
0S
1<
08
1#
1:
0=
1)
0%
1'
0*
#770000
0"
05
0U
1Y
0W
0X
1M
1[
1\
0R
0O
17
1Q
1S
0<
09
1$
1;
1=
0)
0&
1(
1*
#780000
1"
1!
15
14
1T
1U
0Y
0Z
1V
1W
0L
0M
0\
0]
1O
1N
06
07
0P
0Q
19
18
0#
0$
0:
0;
1&
1%
0'
0(
#800000
0"
05
0U
1Y
0V
1X
1M
0[
1]
1R
0N
17
1P
0S
1<
08
1$
1:
0=
1)
0%
1'
0*
#820000
1"
15
1U
0Y
1V
0X
0M
1[
0]
0R
1N
07
0P
1S
0<
18
0$
0:
1=
0)
1%
0'
1*
#840000
0!
04
0T
1Z
0V
1X
1L
0[
1]
1R
0N
16
1P
0S
1<
08
1#
1:
0=
1)
0%
1'
0*
#850000
0"
05
0U
1Y
0W
0X
1M
1[
1\
0R
0O
17
1Q
1S
0<
09
1$
1;
1=
0)
0&
1(
1*
#860000
1!
14
1T
0Z
1W
1X
0L
0[
0\
1R
1O
06
0Q
0S
1<
19
0#
0;
0=
1)
1&
0(
0*
#870000
0!
1"
04
15
1U
0T
1Z
0Y
0M
1L
07
16
0$
1#
#900000
1!
0"
14
05
0U
1T
0Z
1Y
1M
0L
17
06
1$
0#
#920000
0!
04
0T
1Z
0W
0X
1L
1[
1\
0R
0O
16
1Q
1S
0<
09
1#
1;
1=
0)
0&
1(
1*
#930000
1!
14
1T
0Z
1W
1X
0L
0[
0\
1R
1O
06
0Q
0S
1<
19
0#
0;
0=
1)
1&
0(
0*
#950000
0!
1"
04
15
1U
0T
1Z
0Y
0M
1L
07
16
0$
1#
#960000
0"
05
0U
1Y
0W
0X
1M
1[
1\
0R
0O
17
1Q
1S
0<
09
1$
1;
1=
0)
0&
1(
1*
#970000
1!
14
1T
0Z
1W
1X
0L
0[
0\
1R
1O
06
0Q
0S
1<
19
0#
0;
0=
1)
1&
0(
0*
#980000
1"
15
1U
0Y
1V
0X
0M
1[
0]
0R
1N
07
0P
1S
0<
18
0$
0:
1=
0)
1%
0'
1*
#990000
0"
05
0U
1Y
0V
1X
1M
0[
1]
1R
0N
17
1P
0S
1<
08
1$
1:
0=
1)
0%
1'
0*
